Sediment depths and types measured during PortMiami dredge
…
Percent of measurements > 0.5 cm

over_0.5 <- LR %>%
  group_by(reef, dir, dist) %>%
  summarise(N = n(),
            n_over_0.5 = sum(sdepth_cm > 0.5),
            pct_over_0.5 = n_over_0.5 / N)

over_0.5

## # A tibble: 30 x 6
## # Groups:   reef, dir [?]
##    reef  dir    dist     N n_over_0.5 pct_over_0.5
##    <fct> <fct> <dbl> <int>      <int>        <dbl>
##  1 HB    N        48   102         69        0.676
##  2 HB    N       150   102         80        0.784
##  3 HB    S        32   102         73        0.716
##  4 HB    S       150   102         62        0.608
##  5 HB    S       250   102         71        0.696
##  6 R2    N        18   102         37        0.363
##  7 R2    N        75   102         27        0.265
##  8 R2    N       150   102         59        0.578
##  9 R2    N       250   102         27        0.265
## 10 R2    N       350   102         18        0.176
## # ... with 20 more rows

over_5 <- LR %>%
  group_by(reef, dir, dist) %>%
  summarise(N = n(),
            n_over_5 = sum(sdepth_cm > 5),
            pct_over_5 = n_over_5 / N)

over_5

## # A tibble: 30 x 6
## # Groups:   reef, dir [?]
##    reef  dir    dist     N n_over_5 pct_over_5
##    <fct> <fct> <dbl> <int>    <int>      <dbl>
##  1 HB    N        48   102       18    0.176  
##  2 HB    N       150   102       38    0.373  
##  3 HB    S        32   102        6    0.0588 
##  4 HB    S       150   102        8    0.0784 
##  5 HB    S       250   102        6    0.0588 
##  6 R2    N        18   102       15    0.147  
##  7 R2    N        75   102        1    0.00980
##  8 R2    N       150   102        2    0.0196 
##  9 R2    N       250   102        0    0      
## 10 R2    N       350   102        0    0      
## # ... with 20 more rows
…
