Total mortality of coral colonies during PortMiami dredge
…
dead.nonsus %>% group_by(reef, dir, channel) %>% count(DEAD)

## # A tibble: 22 x 5
## # Groups:   reef, dir, channel [12]
##    reef  dir   channel     DEAD      n
##    <chr> <chr> <chr>       <lgl> <int>
##  1 HB    N     channelside FALSE    16
##  2 HB    N     channelside TRUE      4
##  3 HB    N     control     FALSE     3
##  4 HB    S     channelside FALSE    22
##  5 HB    S     control     FALSE    10
##  6 HB    S     control     TRUE      1
##  7 R2    N     channelside FALSE    11
##  8 R2    N     channelside TRUE      7
##  9 R2    N     control     FALSE    33
## 10 R2    N     control     TRUE      2
## # ... with 12 more rows
…
